<?xml version="1.0" encoding="UTF-8" standalone="no"?>
<!-- Created with Inkscape (http://www.inkscape.org/) -->

<svg
   xmlns:dc="http://purl.org/dc/elements/1.1/"
   xmlns:cc="http://creativecommons.org/ns#"
   xmlns:rdf="http://www.w3.org/1999/02/22-rdf-syntax-ns#"
   xmlns:svg="http://www.w3.org/2000/svg"
   xmlns="http://www.w3.org/2000/svg"
   xmlns:sodipodi="http://sodipodi.sourceforge.net/DTD/sodipodi-0.dtd"
   xmlns:inkscape="http://www.inkscape.org/namespaces/inkscape"
   width="159.32594mm"
   height="98.23967mm"
   viewBox="0 0 564.54074 348.09332"
   id="svg6730"
   version="1.1"
   inkscape:version="0.91 r13725"
   sodipodi:docname="phylowgs.svg">
  <defs
     id="defs6732" />
  <sodipodi:namedview
     id="base"
     pagecolor="#ffffff"
     bordercolor="#666666"
     borderopacity="1.0"
     inkscape:pageopacity="0.0"
     inkscape:pageshadow="2"
     inkscape:zoom="0.7"
     inkscape:cx="-41.183292"
     inkscape:cy="-10.734258"
     inkscape:document-units="px"
     inkscape:current-layer="layer1"
     showgrid="false"
     inkscape:window-width="1276"
     inkscape:window-height="969"
     inkscape:window-x="0"
     inkscape:window-y="90"
     inkscape:window-maximized="0"
     fit-margin-top="0"
     fit-margin-left="0"
     fit-margin-right="0"
     fit-margin-bottom="0" />
  <metadata
     id="metadata6735">
    <rdf:RDF>
      <cc:Work
         rdf:about="">
        <dc:format>image/svg+xml</dc:format>
        <dc:type
           rdf:resource="http://purl.org/dc/dcmitype/StillImage" />
        <dc:title />
      </cc:Work>
    </rdf:RDF>
  </metadata>
  <g
     inkscape:label="Layer 1"
     inkscape:groupmode="layer"
     id="layer1"
     transform="translate(1636.3696,-182.10271)">
    <g
       id="g96514"
       transform="matrix(3.4197806,0,0,3.4197806,-616.55323,-1070.4634)">
      <path
         d="m -133.94257,326.11283 c -123.045,0 -222.79374,31.71375 -222.79374,70.8325 0,39.12001 99.74874,70.83251 222.79374,70.83251 l 0.53125,-125.47626 -0.53125,-16.18875"
         style="fill:#cccccc;fill-opacity:1;fill-rule:nonzero;stroke:none"
         id="path36"
         inkscape:connector-curvature="0" />
      <path
         d="m -133.94257,326.11283 c -123.045,0 -222.79374,31.71375 -222.79374,70.8325 0,39.12001 99.74874,70.83251 222.79374,70.83251 l 0.53125,-125.47626 -0.53125,-16.18875 z"
         style="fill:none;stroke:#000000;stroke-width:0.5625;stroke-linecap:round;stroke-linejoin:round;stroke-miterlimit:10;stroke-dasharray:none;stroke-opacity:1"
         id="path38"
         inkscape:connector-curvature="0" />
      <path
         inkscape:connector-curvature="0"
         id="path42"
         style="fill:#a2ff92;fill-opacity:1;fill-rule:nonzero;stroke:none"
         d="m -133.8338,459.01789 c -111.2525,0 -201.44125,-28.16875 -201.44125,-62.91501 0,-34.7475 90.18875,-62.915 201.44125,-62.915 l 0,125.83001" />
      <path
         d="m -133.7588,458.95662 c -111.3275,0.0613 -201.51625,-28.1075 -201.51625,-62.85375 0,-34.7475 90.18875,-62.915 201.51625,-62.915 l 0,125.76875"
         style="fill:none;stroke:#000000;stroke-width:0.5625;stroke-linecap:round;stroke-linejoin:round;stroke-miterlimit:10;stroke-dasharray:none;stroke-opacity:1"
         id="path46"
         inkscape:connector-curvature="0" />
      <path
         inkscape:connector-curvature="0"
         id="path50"
         style="fill:#ffe782;fill-opacity:1;fill-rule:nonzero;stroke:none"
         d="m -133.8338,460.37157 c -62.5525,0 -113.26,-11.1775 -113.26,-24.9675 0,-13.7875 50.7075,-24.96625 113.26,-24.96625 l 0,49.93375" />
      <path
         d="m -133.7588,460.36036 c -62.6275,0.0112 -113.335,-11.16625 -113.335,-24.95625 0,-13.7875 50.7075,-24.96625 113.335,-24.96625 l 0,49.9225"
         style="fill:none;stroke:#000000;stroke-width:0.5625;stroke-linecap:round;stroke-linejoin:round;stroke-miterlimit:10;stroke-dasharray:none;stroke-opacity:1"
         id="path54"
         inkscape:connector-curvature="0" />
      <path
         inkscape:connector-curvature="0"
         id="path58"
         style="fill:#918fff;fill-opacity:1;fill-rule:nonzero;stroke:none"
         d="m -133.42754,410.43787 c -88.1325,0 -159.58,-17.29375 -159.58,-38.625 0,-21.3325 71.4475,-38.625 159.58,-38.625 l 0,77.25" />
      <path
         d="m -133.47882,410.43787 c -88.08125,0 -159.52874,-17.29375 -159.52874,-38.625 0,-21.3325 71.44749,-38.625 159.52874,-38.625 l 0,77.25 z"
         style="fill:none;stroke:#000000;stroke-width:0.5625;stroke-linecap:round;stroke-linejoin:round;stroke-miterlimit:10;stroke-dasharray:none;stroke-opacity:1"
         id="path62"
         inkscape:connector-curvature="0" />
      <path
         d="m -356.59881,383.77283 -0.83625,-2.33875 -0.0137,0 -0.85,2.33875 1.7,0 z m -0.46375,-2.9425 1.95875,5.015 -0.73625,0 -0.5475,-1.51125 -2.1225,0 -0.56125,1.51125 -0.68125,0 1.9525,-5.015 0.7375,0"
         style="fill:#000000;fill-opacity:1;fill-rule:nonzero;stroke:none"
         id="path88"
         inkscape:connector-curvature="0" />
      <path
         inkscape:connector-curvature="0"
         id="path92"
         style="fill:#000000;fill-opacity:1;fill-rule:nonzero;stroke:none"
         d="m -334.99131,382.98662 c 0.37875,0 0.65125,-0.0663 0.8175,-0.2 0.16625,-0.13375 0.25,-0.33375 0.25,-0.60125 0,-0.1775 -0.0288,-0.31875 -0.085,-0.42125 -0.0563,-0.1025 -0.13375,-0.1825 -0.23125,-0.23875 -0.0987,-0.0563 -0.2125,-0.0925 -0.34,-0.10875 -0.13,-0.0163 -0.26625,-0.025 -0.41125,-0.025 l -1.335,0 0,1.595 1.335,0 z m -0.1825,-2.15625 c 0.10625,0 0.2225,10e-4 0.34625,0.004 0.125,0.003 0.2475,0.009 0.37,0.02 0.12125,0.0125 0.235,0.03 0.34,0.0537 0.105,0.0225 0.195,0.0588 0.27,0.105 0.16375,0.0987 0.30375,0.23375 0.41875,0.4075 0.115,0.17375 0.17125,0.38625 0.17125,0.63875 0,0.2675 -0.0637,0.4975 -0.1925,0.6925 -0.12875,0.19375 -0.3125,0.3375 -0.5525,0.43125 l 0,0.0137 c 0.31,0.0663 0.54625,0.20625 0.71,0.42125 0.16375,0.21625 0.24625,0.47875 0.24625,0.7875 0,0.1825 -0.0325,0.36125 -0.0987,0.53375 -0.065,0.17375 -0.1625,0.32625 -0.29125,0.46 -0.12875,0.13375 -0.2875,0.24125 -0.4775,0.3225 -0.19,0.0825 -0.4075,0.12375 -0.65625,0.12375 l -2.42375,0 0,-5.015 1.82,0 z m 0.52,4.4525 c 0.29375,0 0.52375,-0.08 0.69125,-0.23875 0.16625,-0.15875 0.24875,-0.37875 0.24875,-0.66 0,-0.16375 -0.03,-0.3 -0.0913,-0.4075 -0.0612,-0.1075 -0.14125,-0.1925 -0.2425,-0.25625 -0.1,-0.0625 -0.2175,-0.1075 -0.3475,-0.13375 -0.13125,-0.025 -0.26625,-0.0387 -0.4075,-0.0387 l -1.52375,0 0,1.735 1.6725,0" />
      <path
         d="m -253.25508,423.51038 c 0.075,0 0.16875,-0.006 0.28125,-0.0175 0.1125,-0.0113 0.2325,-0.04 0.3575,-0.0838 0.12625,-0.045 0.2525,-0.10875 0.37625,-0.19375 0.12375,-0.085 0.235,-0.19875 0.33375,-0.345 0.0975,-0.14375 0.17875,-0.325 0.2425,-0.54375 0.0637,-0.2175 0.095,-0.48125 0.095,-0.79 0,-0.3 -0.03,-0.5675 -0.0888,-0.80375 -0.0588,-0.2375 -0.15375,-0.43875 -0.2875,-0.605 -0.13375,-0.16625 -0.305,-0.2925 -0.51625,-0.37875 -0.21,-0.0863 -0.47,-0.13 -0.78,-0.13 l -1.12375,0 0,3.89125 1.11,0 z m -0.0563,-4.45375 c 0.7725,0 1.3675,0.1975 1.785,0.59 0.41625,0.39375 0.62375,0.99375 0.62375,1.79875 0,0.42125 -0.0463,0.795 -0.14,1.12 -0.0937,0.32625 -0.23875,0.6 -0.43625,0.82125 -0.19625,0.2225 -0.44625,0.3925 -0.75125,0.51 -0.30375,0.11625 -0.66375,0.175 -1.08125,0.175 l -1.72125,0 0,-5.015 1.72125,0"
         style="fill:#000000;fill-opacity:1;fill-rule:nonzero;stroke:none"
         id="path96"
         inkscape:connector-curvature="0" />
      <path
         inkscape:connector-curvature="0"
         id="path100"
         style="fill:#000000;fill-opacity:1;fill-rule:nonzero;stroke:none"
         d="m -294.27381,384.72536 c -0.255,-0.17875 -0.5575,-0.2675 -0.90875,-0.2675 -0.3,0 -0.55625,0.0563 -0.77,0.16875 -0.2125,0.1125 -0.3875,0.26375 -0.52625,0.45375 -0.1375,0.18875 -0.24,0.405 -0.305,0.64875 -0.0662,0.24375 -0.0987,0.49625 -0.0987,0.75875 0,0.28625 0.0325,0.55625 0.0987,0.81125 0.065,0.255 0.1675,0.4775 0.305,0.6675 0.13875,0.19 0.315,0.34 0.53,0.45375 0.21625,0.11125 0.47375,0.1675 0.7725,0.1675 0.22,0 0.415,-0.0362 0.58625,-0.10875 0.17125,-0.0725 0.31875,-0.17375 0.4425,-0.3025 0.125,-0.12875 0.22125,-0.28125 0.29125,-0.46 0.0713,-0.1775 0.1125,-0.36875 0.1275,-0.575 l 0.6675,0 c -0.0663,0.63125 -0.28375,1.12375 -0.65375,1.475 -0.37,0.35 -0.875,0.52625 -1.5175,0.52625 -0.38875,0 -0.7275,-0.0662 -1.01875,-0.2 -0.28875,-0.13375 -0.53,-0.3175 -0.7225,-0.55125 -0.1925,-0.23375 -0.33625,-0.51125 -0.43125,-0.83 -0.0962,-0.3175 -0.145,-0.66 -0.145,-1.02375 0,-0.36625 0.0512,-0.70875 0.155,-1.03 0.1025,-0.32 0.25375,-0.6 0.4525,-0.83875 0.19875,-0.23875 0.4475,-0.4275 0.745,-0.56625 0.29625,-0.1375 0.6375,-0.2075 1.02125,-0.2075 0.2625,0 0.51125,0.0362 0.745,0.10625 0.23375,0.07 0.4425,0.17375 0.625,0.30875 0.1825,0.13625 0.335,0.30625 0.45625,0.51 0.12125,0.2025 0.20125,0.43875 0.23875,0.70625 l -0.66625,0 c -0.0763,-0.35625 -0.24125,-0.62375 -0.49625,-0.80125" />
      <path
         inkscape:connector-curvature="0"
         id="path986"
         style="fill:#ffffff;fill-opacity:1;fill-rule:nonzero;stroke:none"
         d="m -349.18384,389.78408 c 3.29125,3.29125 3.29125,8.62875 0,11.92 -3.29125,3.29125 -8.62875,3.29125 -11.92,0 -3.29125,-3.29125 -3.29125,-8.62875 0,-11.92 3.29125,-3.29125 8.62875,-3.29125 11.92,0" />
      <path
         inkscape:connector-curvature="0"
         id="path988"
         style="fill:none;stroke:#000000;stroke-width:0.45000002;stroke-linecap:round;stroke-linejoin:round;stroke-miterlimit:10;stroke-dasharray:none;stroke-opacity:1"
         d="m -349.18384,389.78408 c 3.29125,3.29125 3.29125,8.62875 0,11.92 -3.29125,3.29125 -8.62875,3.29125 -11.92,0 -3.29125,-3.29125 -3.29125,-8.62875 0,-11.92 3.29125,-3.29125 8.62875,-3.29125 11.92,0" />
      <path
         d="m -358.35634,388.93531 3.24625,3.24625 -3.24625,3.24625 -3.24625,-3.24625 3.24625,-3.24625"
         style="fill:#cccccc;fill-opacity:1;fill-rule:nonzero;stroke:none"
         id="path992"
         inkscape:connector-curvature="0" />
      <path
         d="m -358.35634,388.93531 3.24625,3.24625 -3.24625,3.24625 -3.24625,-3.24625 3.24625,-3.24625 z"
         style="fill:none;stroke:#000000;stroke-width:0.45000002;stroke-linecap:round;stroke-linejoin:round;stroke-miterlimit:10;stroke-dasharray:none;stroke-opacity:1"
         id="path994"
         inkscape:connector-curvature="0" />
      <path
         d="m -329.27384,389.78408 c 3.29125,3.29125 3.29125,8.62875 0,11.92 -3.29125,3.29125 -8.6275,3.29125 -11.92,0 -3.29125,-3.29125 -3.29125,-8.62875 0,-11.92 3.2925,-3.29125 8.62875,-3.29125 11.92,0"
         style="fill:#ffffff;fill-opacity:1;fill-rule:nonzero;stroke:none"
         id="path1002"
         inkscape:connector-curvature="0" />
      <path
         d="m -329.27384,389.78408 c 3.29125,3.29125 3.29125,8.62875 0,11.92 -3.29125,3.29125 -8.6275,3.29125 -11.92,0 -3.29125,-3.29125 -3.29125,-8.62875 0,-11.92 3.2925,-3.29125 8.62875,-3.29125 11.92,0"
         style="fill:none;stroke:#000000;stroke-width:0.45000002;stroke-linecap:round;stroke-linejoin:round;stroke-miterlimit:10;stroke-dasharray:none;stroke-opacity:1"
         id="path1004"
         inkscape:connector-curvature="0" />
      <path
         inkscape:connector-curvature="0"
         id="path1008"
         style="fill:#cccccc;fill-opacity:1;fill-rule:nonzero;stroke:none"
         d="m -338.44634,388.93531 3.24625,3.24625 -3.24625,3.24625 -3.24625,-3.24625 3.24625,-3.24625" />
      <path
         inkscape:connector-curvature="0"
         id="path1010"
         style="fill:none;stroke:#000000;stroke-width:0.45000002;stroke-linecap:round;stroke-linejoin:round;stroke-miterlimit:10;stroke-dasharray:none;stroke-opacity:1"
         d="m -338.44634,388.93531 3.24625,3.24625 -3.24625,3.24625 -3.24625,-3.24625 3.24625,-3.24625 z" />
      <path
         inkscape:connector-curvature="0"
         id="path1018"
         style="fill:#86ff8f;fill-opacity:1;fill-rule:nonzero;stroke:none"
         d="m -332.19759,388.93531 3.2475,3.24625 -3.2475,3.24625 -3.24625,-3.24625 3.24625,-3.24625" />
      <path
         inkscape:connector-curvature="0"
         id="path1020"
         style="fill:none;stroke:#000000;stroke-width:0.45000002;stroke-linecap:round;stroke-linejoin:round;stroke-miterlimit:10;stroke-dasharray:none;stroke-opacity:1"
         d="m -332.19759,388.93531 3.2475,3.24625 -3.2475,3.24625 -3.24625,-3.24625 3.24625,-3.24625 z" />
      <path
         inkscape:connector-curvature="0"
         id="path1028"
         style="fill:#ffffff;fill-opacity:1;fill-rule:nonzero;stroke:none"
         d="m -289.07759,367.5116 c 3.29125,3.29125 3.29125,8.6275 0,11.92 -3.29125,3.29125 -8.62875,3.29125 -11.92,0 -3.29125,-3.2925 -3.29125,-8.62875 0,-11.92 3.29125,-3.29125 8.62875,-3.29125 11.92,0" />
      <path
         inkscape:connector-curvature="0"
         id="path1030"
         style="fill:none;stroke:#000000;stroke-width:0.45000002;stroke-linecap:round;stroke-linejoin:round;stroke-miterlimit:10;stroke-dasharray:none;stroke-opacity:1"
         d="m -289.07759,367.5116 c 3.29125,3.29125 3.29125,8.6275 0,11.92 -3.29125,3.29125 -8.62875,3.29125 -11.92,0 -3.29125,-3.2925 -3.29125,-8.62875 0,-11.92 3.29125,-3.29125 8.62875,-3.29125 11.92,0" />
      <path
         d="m -298.2501,366.66282 3.24625,3.24625 -3.24625,3.24625 -3.24625,-3.24625 3.24625,-3.24625"
         style="fill:#cccccc;fill-opacity:1;fill-rule:nonzero;stroke:none"
         id="path1034"
         inkscape:connector-curvature="0" />
      <path
         d="m -298.2501,366.66282 3.24625,3.24625 -3.24625,3.24625 -3.24625,-3.24625 3.24625,-3.24625 z"
         style="fill:none;stroke:#000000;stroke-width:0.45000002;stroke-linecap:round;stroke-linejoin:round;stroke-miterlimit:10;stroke-dasharray:none;stroke-opacity:1"
         id="path1036"
         inkscape:connector-curvature="0" />
      <path
         d="m -292.00135,366.66282 3.24625,3.24625 -3.24625,3.24625 -3.24625,-3.24625 3.24625,-3.24625"
         style="fill:#86ff8f;fill-opacity:1;fill-rule:nonzero;stroke:none"
         id="path1044"
         inkscape:connector-curvature="0" />
      <path
         d="m -292.00135,366.66282 3.24625,3.24625 -3.24625,3.24625 -3.24625,-3.24625 3.24625,-3.24625 z"
         style="fill:none;stroke:#000000;stroke-width:0.45000002;stroke-linecap:round;stroke-linejoin:round;stroke-miterlimit:10;stroke-dasharray:none;stroke-opacity:1"
         id="path1046"
         inkscape:connector-curvature="0" />
      <path
         d="m -298.2501,372.91282 3.24625,3.24625 -3.24625,3.24625 -3.24625,-3.24625 3.24625,-3.24625"
         style="fill:#9186ff;fill-opacity:1;fill-rule:nonzero;stroke:none"
         id="path1054"
         inkscape:connector-curvature="0" />
      <path
         d="m -298.2501,372.91282 3.24625,3.24625 -3.24625,3.24625 -3.24625,-3.24625 3.24625,-3.24625 z"
         style="fill:none;stroke:#000000;stroke-width:0.45000002;stroke-linecap:round;stroke-linejoin:round;stroke-miterlimit:10;stroke-dasharray:none;stroke-opacity:1"
         id="path1056"
         inkscape:connector-curvature="0" />
      <path
         d="m -247.00135,428.03786 c 3.29125,3.2925 3.29125,8.62875 0,11.92 -3.29125,3.29125 -8.62875,3.29125 -11.92,0 -3.29125,-3.29125 -3.29125,-8.6275 0,-11.92 3.29125,-3.29125 8.62875,-3.29125 11.92,0"
         style="fill:#ffffff;fill-opacity:1;fill-rule:nonzero;stroke:none"
         id="path1064"
         inkscape:connector-curvature="0" />
      <path
         d="m -247.00135,428.03786 c 3.29125,3.2925 3.29125,8.62875 0,11.92 -3.29125,3.29125 -8.62875,3.29125 -11.92,0 -3.29125,-3.29125 -3.29125,-8.6275 0,-11.92 3.29125,-3.29125 8.62875,-3.29125 11.92,0"
         style="fill:none;stroke:#000000;stroke-width:0.45000002;stroke-linecap:round;stroke-linejoin:round;stroke-miterlimit:10;stroke-dasharray:none;stroke-opacity:1"
         id="path1066"
         inkscape:connector-curvature="0" />
      <path
         inkscape:connector-curvature="0"
         id="path1070"
         style="fill:#cccccc;fill-opacity:1;fill-rule:nonzero;stroke:none"
         d="m -256.1751,427.18909 3.2475,3.24625 -3.2475,3.24625 -3.24625,-3.24625 3.24625,-3.24625" />
      <path
         inkscape:connector-curvature="0"
         id="path1072"
         style="fill:none;stroke:#000000;stroke-width:0.45000002;stroke-linecap:round;stroke-linejoin:round;stroke-miterlimit:10;stroke-dasharray:none;stroke-opacity:1"
         d="m -256.1751,427.18909 3.2475,3.24625 -3.2475,3.24625 -3.24625,-3.24625 3.24625,-3.24625 z" />
      <path
         inkscape:connector-curvature="0"
         id="path1080"
         style="fill:#86ff8f;fill-opacity:1;fill-rule:nonzero;stroke:none"
         d="m -249.80385,427.18909 3.2475,3.24625 -3.2475,3.24625 -3.24625,-3.24625 3.24625,-3.24625" />
      <path
         inkscape:connector-curvature="0"
         id="path1082"
         style="fill:none;stroke:#000000;stroke-width:0.45000002;stroke-linecap:round;stroke-linejoin:round;stroke-miterlimit:10;stroke-dasharray:none;stroke-opacity:1"
         d="m -249.80385,427.18909 3.2475,3.24625 -3.2475,3.24625 -3.24625,-3.24625 3.24625,-3.24625 z" />
      <path
         inkscape:connector-curvature="0"
         id="path1090"
         style="fill:#ffeb7c;fill-opacity:1;fill-rule:nonzero;stroke:none"
         d="m -249.80385,433.43779 3.2475,3.24625 -3.2475,3.24625 -3.24625,-3.24625 3.24625,-3.24625" />
      <path
         inkscape:connector-curvature="0"
         id="path1092"
         style="fill:none;stroke:#000000;stroke-width:0.45000002;stroke-linecap:round;stroke-linejoin:round;stroke-miterlimit:10;stroke-dasharray:none;stroke-opacity:1"
         d="m -249.80385,433.43779 3.2475,3.24625 -3.2475,3.24625 -3.24625,-3.24625 3.24625,-3.24625 z" />
    </g>
  </g>
</svg>
